<?xml version="1.0" encoding="UTF-8"?>
<!DOCTYPE svg PUBLIC "-//W3C//DTD SVG 1.1//EN" "http://www.w3.org/Graphics/SVG/1.1/DTD/svg11.dtd">
<!-- Creator: CorelDRAW X5 -->
<svg xmlns="http://www.w3.org/2000/svg" xml:space="preserve" width="50.8mm" height="50.8mm" style="shape-rendering:geometricPrecision; text-rendering:geometricPrecision; image-rendering:optimizeQuality; fill-rule:evenodd; clip-rule:evenodd"
viewBox="0 0 5080 5080"
 xmlns:xlink="http://www.w3.org/1999/xlink">
 <defs>
  <style type="text/css">
   <![CDATA[
    .fil3 {fill:#00796B}
    .fil4 {fill:#009688}
    .fil6 {fill:#37474F}
    .fil5 {fill:#CFD8DC}
    .fil0 {fill:#E1E1E1}
    .fil1 {fill:#EBEBEB}
    .fil2 {fill:whitesmoke}
   ]]>
  </style>
 </defs>
 <g id="Camada_x0020_1">
  <metadata id="CorelCorpID_0Corel-Layer"/>
  <g id="_233515376">
   <rect class="fil0" x="858" y="872" width="3364" height="3336" rx="237" ry="237"/>
   <path class="fil1" d="M4222 1391l0 2521c0,130 -107,237 -237,237l-2890 0c-130,0 -237,-107 -237,-237l0 -2521 3364 0z"/>
   <path class="fil2" d="M4222 1436l0 2408c0,130 -107,237 -237,237l-2890 0c-130,0 -237,-107 -237,-237l0 -2408 3364 0z"/>
   <path class="fil3" d="M1095 906l2890 0c130,0 237,107 237,237l0 546 -3364 0 0 -546c0,-130 107,-237 237,-237z"/>
   <path class="fil4" d="M1095 872l2890 0c130,0 237,107 237,237l0 546 -3364 0 0 -546c0,-130 107,-237 237,-237z"/>
   <rect class="fil5" x="1287" y="812" width="256" height="327" rx="51" ry="51"/>
   <rect class="fil5" x="3537" y="812" width="256" height="327" rx="51" ry="51"/>
   <path class="fil6" d="M3375 2588l0 -2 0 0 0 -2c-1,-22 -14,-44 -39,-52l0 0 -710 -259 -67 -25c-13,-4 -25,-4 -38,0l-777 284 0 0c-25,8 -38,30 -39,52l0 2 0 0 0 2c1,22 14,44 39,52l0 0 777 284c13,4 25,4 38,0l67 -25 586 -214 0 293c0,12 10,23 23,23l0 0c12,0 23,-10 23,-23l0 -310 78 -29 0 0c25,-8 38,-30 39,-52zm-1338 189l34 12 452 165c12,4 23,4 36,0l62 -23 423 -155 1 0c16,-5 30,5 30,24l0 335c0,19 -14,39 -30,46l-436 158 -49 18c-12,4 -24,4 -36,0l-13 -5 0 0 -473 -172c-17,-6 -30,-27 -30,-46l0 -335c0,-19 14,-29 30,-23z"/>
  </g>
 </g>
</svg>
