<?xml version="1.0" encoding="UTF-8"?>
<!DOCTYPE svg PUBLIC "-//W3C//DTD SVG 1.1//EN" "http://www.w3.org/Graphics/SVG/1.1/DTD/svg11.dtd">
<!-- Creator: CorelDRAW X5 -->
<svg xmlns="http://www.w3.org/2000/svg" xml:space="preserve" width="50.8mm" height="50.8mm" style="shape-rendering:geometricPrecision; text-rendering:geometricPrecision; image-rendering:optimizeQuality; fill-rule:evenodd; clip-rule:evenodd"
viewBox="0 0 5080 5080"
 xmlns:xlink="http://www.w3.org/1999/xlink">
 <defs>
  <style type="text/css">
   <![CDATA[
    .fil0 {fill:whitesmoke}
    .fil1 {fill:#FB8C00}
    .fil3 {fill:#FDD835}
    .fil2 {fill:#FDD835;fill-rule:nonzero}
   ]]>
  </style>
 </defs>
 <g id="Camada_x0020_1">
  <metadata id="CorelCorpID_0Corel-Layer"/>
  <g id="_233178016">
   <circle class="fil0" cx="2540" cy="2540" r="1943"/>
   <circle class="fil1" cx="2540" cy="2540" r="1943"/>
   <path class="fil2" d="M2540 858c464,0 885,188 1189,493 304,304 493,725 493,1189 0,464 -188,885 -493,1189 -304,304 -725,493 -1189,493 -464,0 -885,-188 -1189,-493 -304,-304 -493,-725 -493,-1189 0,-464 188,-885 493,-1189 304,-304 725,-493 1189,-493zm1131 551c-289,-289 -689,-468 -1131,-468 -442,0 -842,179 -1131,468 -289,289 -468,689 -468,1131 0,442 179,842 468,1131 289,289 689,468 1131,468 442,0 842,-179 1131,-468 289,-289 468,-689 468,-1131 0,-442 -179,-842 -468,-1131z"/>
   <path class="fil3" d="M2070 2301c0,-77 -11,-150 -32,-217 -8,-25 -17,-49 -27,-72 -1,-3 -3,-7 -4,-10 -5,-11 -10,-21 -15,-31 -11,-20 -23,-39 -36,-57 0,0 0,-1 -1,-1 -6,-8 -11,-15 -17,-22 -8,-10 -17,-20 -26,-29 -41,-42 -87,-71 -138,-87 -18,-5 -37,-9 -56,-10 -7,-1 -14,-1 -20,-1 -100,0 -190,57 -257,149 -19,27 -37,57 -52,89 -4,8 -7,15 -10,23 -33,80 -52,174 -52,275 0,87 14,168 39,241 4,12 8,23 13,34l3 7c52,122 138,212 238,243l0 334 0 8 0 292 0 36 0 76 0 168 0 56 0 54c47,33 97,64 148,92 3,1 5,3 8,4l0 -4 0 -67 0 -80 0 -56 0 -44 0 -356 0 -36 0 -136 0 -8 0 -173 0 -105 0 -56c50,-15 96,-45 136,-86 16,-16 30,-33 44,-53 22,-31 42,-66 58,-105 6,-13 11,-27 16,-41 25,-72 39,-154 39,-241z"/>
   <path class="fil3" d="M2988 2541c25,-72 39,-154 39,-241l0 -5 0 -1 0 -205 0 -36 0 -51 0 -74 0 -15 0 -96c0,-6 -1,-12 -3,-18 -7,-20 -27,-35 -50,-35 -3,0 -5,0 -7,1 -26,4 -46,26 -46,53l0 43 0 53 0 89 0 157 0 36 0 42 0 56c0,29 -24,53 -53,53 -27,0 -49,-20 -53,-46 0,-2 0,-5 0,-7l0 -29 0 -36 0 -227 0 -89 0 -96 0 -4c-2,-27 -25,-49 -53,-49 -17,0 -32,8 -42,21 -7,9 -11,20 -11,32l0 96 0 89 0 217 0 76c0,29 -24,53 -53,53 -29,0 -53,-24 -53,-53l0 -77 0 -215 0 -89 0 -96c0,-28 -21,-51 -49,-53l-5 0 -3 0c-2,0 -5,0 -7,1 -1,0 -3,1 -4,1 -23,6 -39,27 -39,51l0 96 0 89 0 225 0 67c0,29 -24,53 -53,53 -29,0 -53,-24 -53,-53l0 -56 0 -236 0 -89 0 -96c0,-14 -6,-28 -15,-37 -10,-10 -23,-16 -38,-16 -24,0 -45,17 -51,39 -1,5 -2,9 -2,14l0 96 0 89 0 282 0 10 0 1 0 1 0 4c0,10 0,20 1,29 3,76 17,147 39,211 5,14 10,27 16,41 16,37 35,72 57,102 5,7 10,14 16,21 36,45 78,81 124,104 1,1 3,1 4,2 12,6 25,11 38,15l0 334 0 8 0 230 0 28 0 315 0 56 0 80 0 55 0 13 0 179 0 19c53,-1 105,-5 156,-11l0 -8 0 -179 0 -26 0 -41 0 -80 0 -56 0 -335 0 -30 0 -207 0 -8 0 -334c12,-4 23,-8 34,-13 10,-5 20,-10 30,-16 73,-43 134,-119 175,-215 6,-13 11,-27 16,-41z"/>
   <path class="fil3" d="M3640 2491l0 -488 0 -89 0 -107 0 -42c-10,0 -20,1 -30,2 -88,10 -167,64 -227,148 -19,27 -37,57 -52,89 -12,26 -23,54 -32,83 -13,44 -23,92 -28,141 -2,24 -3,49 -3,74 0,87 14,168 39,241 5,14 10,27 16,41 8,19 17,37 27,55 17,30 36,57 56,82 24,28 50,51 77,70l0 371 0 8 0 316 0 45 0 12 0 199 0 56 0 37c16,-12 32,-24 48,-37 37,-29 73,-61 107,-93l0 -18 0 -45 0 -283 0 -189 0 -8 0 -322 0 -255 0 -41 0 -51z"/>
  </g>
 </g>
</svg>
